<?xml version="1.0" encoding="utf-8"?>
<!-- Generator: Adobe Illustrator 24.0.3, SVG Export Plug-In . SVG Version: 6.00 Build 0)  -->
<svg version="1.1" id="Layer_1" xmlns="http://www.w3.org/2000/svg" xmlns:xlink="http://www.w3.org/1999/xlink" x="0px" y="0px"
	 viewBox="0 0 32 32" style="enable-background:new 0 0 32 32;" xml:space="preserve">
<path id="large" class="large" d="M16,32C7.2,32,0,24.8,0,16S7.2,0,16,0s16,7.2,16,16S24.8,32,16,32z M16,5.3C10.1,5.3,5.3,10.1,5.3,16
	S10.1,26.7,16,26.7S26.7,21.9,26.7,16S21.9,5.3,16,5.3z"/>
<circle id="small" class="small" cx="16" cy="16" r="16"/>
</svg>
