<?xml version="1.0" encoding="utf-8"?>
<!-- Generator: Adobe Illustrator 24.0.0, SVG Export Plug-In . SVG Version: 6.00 Build 0)  -->
<svg version="1.1" xmlns="http://www.w3.org/2000/svg" xmlns:xlink="http://www.w3.org/1999/xlink" x="0px" y="0px"
	 viewBox="0 0 212.1069336 11.1604023" enable-background="new 0 0 212.1069336 11.1604023" xml:space="preserve">
<g id="Livello_1">
	<path fill="#44F5AA" d="M94.8833694,9.2631235H3.8867514c-1.112469,0-2.0143032-0.9018335-2.0143032-2.0143027l0.0000001-0.9713936
		c0-1.1124692,0.9018341-2.0143032,2.0143032-2.0143032h90.9966202V9.2631235z"/>
	<path fill="#FF5D41" d="M160.2372894,4.263124h47.4081421c1.1124573,0,2.0142975,0.901834,2.0142975,2.0143032v0.9713936
		c0,1.1124692-0.9018402,2.0143027-2.0142975,2.0143027h-47.4081421V4.263124z"/>
	
		<rect x="94.8833694" y="4.263124" transform="matrix(-1 3.058550e-13 -3.058550e-13 -1 255.1206665 13.526248)" fill="#FFEE56" width="65.3539276" height="5"/>
	<path fill="#08A160" d="M118.8724823,2.2631238h-1.0000687c-0.5522614,0-0.9999619,0.4477007-0.9999619,0.9999676v6.0000324h3
		V3.2630913C119.8724518,2.7108245,119.4247437,2.2631238,118.8724823,2.2631238z"/>
	<g>
		<path fill="#A5922B" d="M195.9887238,5.263124h-2.0115509c-0.2729492,0-0.4942322-0.2212725-0.4942322-0.494226V4.7573495
			c0-0.2729535,0.221283-0.4942255,0.4942322-0.4942255h2.0115509c0.2729492,0,0.4942169,0.221272,0.4942169,0.4942255V4.768898
			C196.4829407,5.0418515,196.261673,5.263124,195.9887238,5.263124z"/>
		<path fill="#A5922B" d="M195.9887238,3.2631238h-2.0115509c-0.2729492,0-0.4942322-0.2212725-0.4942322-0.4942257V2.7573495
			c0-0.2729533,0.221283-0.4942257,0.4942322-0.4942257h2.0115509c0.2729492,0,0.4942169,0.2212725,0.4942169,0.4942257V2.768898
			C196.4829407,3.0418513,196.261673,3.2631238,195.9887238,3.2631238z"/>
		<path fill="#A5922B" d="M195.9887238,9.2631235h-2.0115509c-0.2729492,0-0.4942322-0.2212725-0.4942322-0.4942255V8.75735
			c0-0.272954,0.221283-0.4942265,0.4942322-0.4942265h2.0115509c0.2729492,0,0.4942169,0.2212725,0.4942169,0.4942265v0.011548
			C196.4829407,9.041852,196.261673,9.2631235,195.9887238,9.2631235z"/>
		<path fill="#A5922B" d="M195.9887238,7.263124h-2.0115509c-0.2729492,0-0.4942322-0.2212725-0.4942322-0.494226V6.7573495
			c0-0.272953,0.221283-0.4942255,0.4942322-0.4942255h2.0115509c0.2729492,0,0.4942169,0.2212725,0.4942169,0.4942255V6.768898
			C196.4829407,7.0418515,196.261673,7.263124,195.9887238,7.263124z"/>
	</g>
</g>
<g id="Livello_3">
</g>
<g id="Livello_2">
</g>
</svg>
