<?xml version="1.0" encoding="utf-8"?>
<!-- Generator: Adobe Illustrator 24.0.0, SVG Export Plug-In . SVG Version: 6.00 Build 0)  -->
<svg version="1.1" xmlns="http://www.w3.org/2000/svg" xmlns:xlink="http://www.w3.org/1999/xlink" x="0px" y="0px"
	 viewBox="0 0 212.1069336 11.1604023" enable-background="new 0 0 212.1069336 11.1604023" xml:space="preserve">
<g id="Livello_1">
	<path fill="#44F5AA" d="M207.9857025,9.0432215H4.0143032C2.9018342,9.0432215,2,8.141387,2,7.0289178V6.0575242
		C2,4.9450555,2.9018342,4.043221,4.0143032,4.043221h203.971405C209.0981598,4.043221,210,4.9450555,210,6.0575242v0.9713936
		C210,8.141387,209.0981598,9.0432215,207.9857025,9.0432215z"/>
	<path fill="#08A160" d="M119.0000305,2.0432208h-1.000061C117.4477005,2.0432208,117,2.4909215,117,3.0431886v6.0000329h3
		V3.0431886C120,2.4909215,119.5522995,2.0432208,119.0000305,2.0432208z"/>
	<g>
		<path fill="#A5922B" d="M196.116272,5.043221h-2.0115509c-0.2729492,0-0.4942322-0.2212725-0.4942322-0.494226V4.5374465
			c0-0.272953,0.221283-0.4942255,0.4942322-0.4942255h2.0115509c0.2729492,0,0.4942169,0.2212725,0.4942169,0.4942255V4.548995
			C196.6104889,4.8219485,196.3892212,5.043221,196.116272,5.043221z"/>
		<path fill="#A5922B" d="M196.116272,3.0432208h-2.0115509c-0.2729492,0-0.4942322-0.2212725-0.4942322-0.4942257V2.5374465
			c0-0.2729533,0.221283-0.4942257,0.4942322-0.4942257h2.0115509c0.2729492,0,0.4942169,0.2212725,0.4942169,0.4942257V2.548995
			C196.6104889,2.8219485,196.3892212,3.0432208,196.116272,3.0432208z"/>
		<path fill="#A5922B" d="M196.116272,9.0432215h-2.0115509c-0.2729492,0-0.4942322-0.2212725-0.4942322-0.4942265V8.537447
			c0-0.272953,0.221283-0.4942255,0.4942322-0.4942255h2.0115509c0.2729492,0,0.4942169,0.2212725,0.4942169,0.4942255v0.011548
			C196.6104889,8.821949,196.3892212,9.0432215,196.116272,9.0432215z"/>
		<path fill="#A5922B" d="M196.116272,7.043221h-2.0115509c-0.2729492,0-0.4942322-0.2212725-0.4942322-0.494226V6.5374465
			c0-0.272953,0.221283-0.4942255,0.4942322-0.4942255h2.0115509c0.2729492,0,0.4942169,0.2212725,0.4942169,0.494226v0.011548
			C196.6104889,6.8219485,196.3892212,7.043221,196.116272,7.043221z"/>
	</g>
</g>
<g id="Livello_3">
</g>
<g id="Livello_2">
</g>
</svg>
